{
    "isCustom" : "true",
    "title" : "Capitols",
    "shortTitle" : "capitols",
    "description" : "National and Chinese provincial capitols.",
    "cards" : [
               {
               "simplified"  : "华盛顿",
               "traditional" : "華盛頓",
               "pinyin"      : [ "huá shèng dùn" ],
               "definitions" : [ "Washington DC", "Capitol of 美國" ]
               },
               {
               "simplified"  : "巴黎",
               "traditional" : "巴黎",
               "pinyin"      : [ "bā lí" ],
               "definitions" : [ "Paris", "Capitol of 法國" ]
               },
                                {
                                "simplified"  : "广州",
                                "traditional" : "廣州",
                                "pinyin"      : [ "guǎng zhōu" ],
                                "definitions" : [ "Guangzhou", "Capitol of 廣東" ]
                                },
                                {
                                "simplified"  : "柏林",
                                "traditional" : "柏林",
                                "pinyin"      : [ "bó lín" ],
                                "definitions" : [ "Berlin", "Capitol of 德國" ]
                                },
                                {
                                "simplified"  : "东京",
                                "traditional" : "東京",
                                "pinyin"      : [ "dōng jīng" ],
                                "definitions" : [ "Tokyo", "Capitol of 日本" ]
                                },
                                {
                                "simplified"  : "哈尔滨",
                                "traditional" : "哈爾濱",
                                "pinyin"      : [ "hā ěr bīn" ],
                                "definitions" : [ "Harbin", "Capitol of 黑龍江" ]
                                },
                                {
                                "simplified"  : "郑州",
                                "traditional" : "鄭州",
                                "pinyin"      : [ "zhèng zhōu" ],
                                "definitions" : [ "Zhengzhou", "Capitol of 河南" ]
                                },
                                {
                                "simplified"  : "成都",
                                "traditional" : "成都",
                                "pinyin"      : [ "chéng dū" ],
                                "definitions" : [ "Chengdu", "Capitol of 四川" ]
                                },
                                {
                                "simplified"  : "南京",
                                "traditional" : "南京",
                                "pinyin"      : [ "nán jīng" ],
                                "definitions" : [ "Nanjing", "Capitol of 江蘇" ]
                                },
                                {
                                "simplified"  : "伦敦",
                                "traditional" : "倫敦",
                                "pinyin"      : [ "lún dūn" ],
                                "definitions" : [ "London", "Capitol of 英國" ]
                                }
               ]
}
